Export Virtual and Ping Host List Report,Report Type: ,Company Name: dvtautomation,Current Date: 31/08/2016,,,,,,,,,,,,,,,,,,,,,,,,,,,,,,,,,,,,,,,,,,,,,,
HostNumber,Host Name,Interface Name,IP Address,Subnet Mask,Interface Description,Host Type Number,Additional Information,Reporting Code,Latitude,Longitude,Location Id,Location,Time Region,Address1-999999,Address2-999998,Address3-999997,PostalCode-999996,Services-999995,Telephone-999994,Remark-999993,Connectivity-999992,WanClass-999991,ManClass-999990,VoiceClass-999989,Info1-999988,Info2-999987,Info3-999986,Info4-999985,Info5-999984,Status-999983,Fax-999982,ViewGroup-999981,SLAGroup-999980,OriginalEarthStation-999979,BandwidthSecondary-999976,Identity-999975,Info6-999974,Info7-999973,Info8-999972,Info9-999971,Info10-999970,Bandwidth-999969,Position-999968,TrunkPorts-999967,Manufacturer-999903,Model-999902,Make-999901,SerialNumber-999900,LastChangeReference-900002
20627,Ping-Host-1,Interface1,123.123.123.1,255.255.255.0,interfaceDescription,1000020,,,,,20675,Africa.South Africa.Western Cape.Bellville,ZA,,,,,,,,,,,,,,,,,,,,,,,,,,,,,,,,,,,,
20627,Ping-Host-2,Interface1,123.123.123.2,255.255.255.0,interfaceDescription,1000020,,RT_DVTPingHostSIN188_,,,20675,Africa.South Africa.Western Cape.Bellville,ZA,,,,,,,,,,,,,,,,,,,,,,,,,,,,,,,,,,,,
20627,Ping-Host-3,Interface1,123.123.123.3,255.255.255.0,interfaceDescription,1000020,,,,,20675,Africa.South Africa.Western Cape.Bellville,ZA,,,,,,,,,,,,,,,,,,,,,,,,,,,,,,,,,,,,
20627,Ping-Host-4,Interface1,123.123.123.4,255.255.255.0,interfaceDescription,1000020,,,,,20675,Africa.South Africa.Western Cape.Bellville,ZA,,,,,,,,,,,,,,,,,,,,,,,,,,,,,,,,,,,,
35008,Virtual-Cloud-Host,AutoVirtualInterface1,10.14.254.1,255.255.255.252,,1000081,,,,,20675,Africa.South Africa.Western Cape.Bellville,ZA,,,,,,,,,,,,,,,,,,,,,,,,,,,,,,,,,,,,
35008,Virtual-Cloud-Host,AutoVirtualInterface1,10.14.254.9,255.255.255.252,,, , , , , , ,ZA,,,,,,,,,,,,,,,,,,,,,,,,,,,,,,,,,,,,
35008,Virtual-Cloud-Host,AutoVirtualInterface1,192.168.1.1,255.255.255.252,,, , , , , , ,ZA,,,,,,,,,,,,,,,,,,,,,,,,,,,,,,,,,,,,
35008,Virtual-Cloud-Host,AutoVirtualInterface1,2.2.2.1,255.255.255.252,,, , , , , , ,ZA,,,,,,,,,,,,,,,,,,,,,,,,,,,,,,,,,,,,
35008,Virtual-Cloud-Host,AutoVirtualInterface1,10.15.128.66,255.255.255.252,,, , , , , , ,ZA,,,,,,,,,,,,,,,,,,,,,,,,,,,,,,,,,,,,
