Category Key,Description,isCustom
1,Category Type 1,0
2,Category Type 2,0
3,Category Type 3,0
4,Category Type 4,0
5,Category Type 5,0
6,Category Type 6,0
7,Category Type 7,0
8,Category Type 8,0
9,Category Type 9,0
10,Category Type 10,0
11,Category Type 11,0
