Export Host List Template Export,Report Type: ,Company Name: Testing Team,Current Date: 23/08/2017,,,,,,,,,,,,,,,,,,,,,,
IP,Host Name,LocationID,Location Short Name / Description,Location,Reporting Code,Host Type Number,Host Class,GroupName,Snmp Community,Impact,Fault Mon,Perf Mon,Disable New Objects Mon,Spare / Decommissioned,Port Mon,Arp Mon,NetStat,CDP Scan,DHCP Scan,Investigate Type,Additional Info,Latitude,Longitude,Unit Count,Time Region
10.0.4.131,sin-cpt-sl-sint-automation-testing-1,,Cape Town / Cape Town,Africa.South Africa.Western Cape.Cape Town,,1000070,H,Linux,sintrex,0,1,1,0,0,0,0,0,0,0,0,,,,3,ZA
10.0.4.132,sin-cpt-sl-sint-automation-testing-2,,Cape Town / Cape Town,Africa.South Africa.Western Cape.Cape Town,,1000070,H,Linux,sintrex,0,1,1,0,0,0,0,0,0,0,0,,,,1,ZA
10.0.4.133,sin-cpt-sl-sint-automation-testing-3,,Cape Town / Cape Town,Africa.South Africa.Western Cape.Cape Town,,1000070,H,Linux,sintrex,0,1,1,0,0,0,0,0,0,0,0,,,,3,ZA
10.0.4.134,sin-cpt-sl-sint-automation-testing-4,,Cape Town / Cape Town,Africa.South Africa.Western Cape.Cape Town,,1000070,H,Linux,sintrex,0,1,1,0,0,0,0,0,0,0,0,,,,3,ZA
10.0.4.135,sin-cpt-sl-sint-automation-testing-5,,Cape Town / Cape Town,Africa.South Africa.Western Cape.Cape Town,,1000070,H,Linux,sintrex,0,1,1,0,0,0,0,0,0,0,0,,,,3,ZA
10.0.4.136,sin-cpt-sl-sint-automation-testing-6,,Cape Town / Cape Town,Africa.South Africa.Western Cape.Cape Town,,1000070,H,Linux,sintrex,0,1,1,0,0,0,0,0,0,0,0,,,,3,ZA
10.0.4.137,sin-cpt-sl-sint-automation-testing-7,,Cape Town / Cape Town,Africa.South Africa.Western Cape.Cape Town,,1000070,H,Linux,sintrex,0,1,1,0,0,0,0,0,0,0,0,,,,3,ZA
10.0.4.138,sin-cpt-sl-sint-automation-testing-8,,Cape Town / Cape Town,Africa.South Africa.Western Cape.Cape Town,,1000070,H,Linux,sintrex,0,1,1,0,0,0,0,0,0,0,0,,,,3,ZA
10.0.4.139,sin-cpt-sl-sint-automation-testing-9,,Cape Town / Cape Town,Africa.South Africa.Western Cape.Cape Town,,1000070,H,Linux,sintrex,0,1,1,0,0,0,0,0,0,0,0,,,,3,ZA
10.0.4.225,sin-cpt-sl-lincluster-host001,,Cape Town / Cape Town,Africa.South Africa.Western Cape.Cape Town,,1000009,H,Linux,sintrex,M,1,1,0,0,0,0,0,0,0,4,,,,2,ZA
10.0.4.226,sin-cpt-sl-lincluster-host002,,Cape Town / Cape Town,Africa.South Africa.Western Cape.Cape Town,,1000009,H,Linux,sintrex,M,1,1,0,0,0,0,0,0,0,4,,,,2,ZA
10.0.4.227,sin-cpt-sl-lincluster-host003,,Cape Town / Cape Town,Africa.South Africa.Western Cape.Cape Town,,1000009,H,Linux,sintrex,0,1,1,0,0,0,0,0,0,0,0,,,,2,ZA
10.0.4.228,sin-cpt-sl-lincluster-host004,,Cape Town / Cape Town,Africa.South Africa.Western Cape.Cape Town,,1000009,H,Linux,sintrex,0,1,1,0,0,0,0,0,0,0,0,,,,2,ZA
10.14.33.197,w98-rtr-MIMIC523,,Bellville / Bellville,Africa.South Africa.Western Cape.Bellville,,1000213,S,Switches,public,0,1,1,0,0,0,0,0,0,0,0,,,,2,ZA
10.14.34.197,w98-rtr-MIMIC524,,Bellville / Bellville,Africa.South Africa.Western Cape.Bellville,,1000213,S,Switches,public,0,1,1,0,0,1,0,0,0,0,0,,,,2,ZA
10.14.35.197,w98-rtr-MIMIC525,,Bellville / Bellville,Africa.South Africa.Western Cape.Bellville,,1000213,S,Switches,public,0,1,1,0,0,1,0,0,0,0,0,,,,2,ZA
10.15.0.111,WIN2012-DVT1,,Bellville / Bellville,Africa.South Africa.Western Cape.Bellville,,1000003,H,Windows,public,0,1,1,0,0,0,0,0,0,0,0,,,,3,ZA
10.15.0.112,WIN2012-DVT2,,Bellville / Bellville,Africa.South Africa.Western Cape.Bellville,,1000003,H,Windows,public,0,1,1,0,0,0,0,0,0,0,0,,,,3,ZA
10.15.0.21,Mimic,,Bellville / Bellville,Africa.South Africa.Western Cape.Bellville,,1000070,H,All Hosts,sintrex,J,1,1,0,0,0,0,0,0,0,0,,,,3,ZA
10.15.0.23,mimicremotepoller,,Bellville / Bellville,Africa.South Africa.Western Cape.Bellville,,1000009,H,Linux,sintrex,0,1,1,0,0,0,0,0,0,0,0,,,,2,ZA
10.15.0.252,Router-A,,Bellville / Bellville,Africa.South Africa.Western Cape.Bellville,REG_WesternWC_CPT_,1000001,R,Routers,public,0,1,1,0,0,0,1,0,0,0,0,,,,2,ZA
10.15.0.253,Router-B,,Bellville / Bellville,Africa.South Africa.Western Cape.Bellville,,1000001,R,Routers,private,J,1,1,0,0,0,1,0,0,0,5,,,,2,ZA
10.15.0.50,GNS-Router-CPT-EDGE,,Cape Town / Cape Town,Africa.South Africa.Western Cape.Cape Town,WC_BVL,1000201,R,Routers,sintrex,C,1,1,0,0,0,1,0,0,0,0,,,,2,ZA
10.15.128.14,GNS-Router-CPT2,,Cape Town / Cape Town,Africa.South Africa.Western Cape.Cape Town,,1000001,R,Routers,sintrex,0,1,1,0,0,0,1,0,0,0,5,,,,2,ZA
10.15.128.2,GNS-Router-KIM,,Kimberly,Africa.South Africa.Northern Cape.Kimberly,,1000001,R,All Hosts,sintrex,0,1,1,0,0,0,1,0,0,0,5,,,,2,ZA
10.15.128.3,GNS-Router-ALJ,,Bellville / Bellville,Africa.South Africa.Western Cape.Bellville,,1000001,R,Routers,sintrex,0,1,1,0,0,0,1,0,,,5,,,,2,ZA
10.15.128.4,GNS-Router-UTN,,Upington,Africa.South Africa.Northern Cape.Upington,,1000001,R,Routers,sintrex,0,1,1,0,0,0,1,0,0,0,5,,,,2,ZA
10.15.128.5,GNS-Router-MZY,,Mossel Bay / Mossel Bay,Africa.South Africa.Western Cape.Mossel Bay,WC_CPT_WC_BVL_,1000001,R,Routers,sintrex,0,1,1,0,0,0,1,0,0,0,5,,,,2,ZA
10.15.128.6,GNS-Router-OUH,,Oudtshoorn / Oudtshoorn,Africa.South Africa.Western Cape.Oudtshoorn,,1000001,R,Routers,sintrex,J,1,1,0,0,0,1,0,0,0,0,,,,2,ZA
10.15.135.254,GNS-Router-CPT1,,Cape Town / Cape Town,Africa.South Africa.Western Cape.Cape Town,WC_DVTCPT1,1000001,R,Routers,sintrex,0,1,1,0,0,0,1,0,0,0,0,,,,2,ZA
10.0.4.249,sin-cpt-sl-lincluster,,Cape Town / Cape Town,Africa.South Africa.Western Cape.Cape Town,,1000009,H,,public,0,1,1,0,0,0,0,0,0,0,0,,-33.215777,34.953333,2,ZA
