
                         -- NARRATOR LOG FILE --                                                                                       

2019/04/09 08:43:54:4354 - [KEYS] START KEYWORD: Projects_Create_Alarm_1                                                               

2019/04/09 08:43:57:4357 - [INFO] [INFO] Converting screenshot to Base64 format...                                                                                       

2019/04/09 08:43:57:4357 - [INFO] [INFO] Converting completed, image ready for embedding.                                                                                       

2019/04/09 08:43:57:4357 - [INFO] [INFO] STEP 1:Successfully navigated to the Sintelligent login page                                                                                       

2019/04/09 08:43:57:4357 - [EROR]  Parameter ' InvalidUsername ' not found                                                                                       

2019/04/09 08:43:58:4358 - [INFO] [Info] Entered text 'admin' into element '//input[@name='CacheUserName']'                                                                                       

2019/04/09 08:43:59:4359 - [INFO] [INFO] STEP 2:Successfully entered the login details                                                                                       

2019/04/09 08:43:59:4359 - [DBUG]  Clicking element by Xpath : //div[@id='divLoginButton']                                                                                       

2019/04/09 08:44:03:443  - [EROR]  Parameter ' InvalidUsername ' not found                                                                                       

2019/04/09 08:44:04:444  - [INFO] [INFO] STEP 3:entered the login details and clicked the login button                                                                                       

2019/04/09 08:44:04:444  - [EROR]  Parameter ' InvalidUsername ' not found                                                                                       

2019/04/09 08:44:07:447  - [INFO] [INFO] STEP 4:Successfully validated the login process was successful                                                                                       

2019/04/09 08:44:07:447  - [EROR]  Parameter ' InvalidUsername ' not found                                                                                       

2019/04/09 08:44:08:448  - [INFO] [INFO] Converting screenshot to Base64 format...                                                                                       

2019/04/09 08:44:08:448  - [INFO] [INFO] Converting completed, image ready for embedding.                                                                                       

2019/04/09 08:44:08:448  - [PASS] [INFO] TEST Projects_Create_Alarm_1 PASSED:Test Parameters:                                                                                       

2019/04/09 08:44:08:448  - [DBUG] Continuing to next test method                                                                                       

2019/04/09 08:44:08:448  - [DBUG] Executing test - NavigateToPage                                                                                       

2019/04/09 08:44:10:4410 - [KEYS] START KEYWORD: Projects_Create_Alarm_2                                                               

2019/04/09 08:44:10:4410 - [INFO] [INFO] STEP 5:validate the correct SINTelligent page was loaded                                                                                       

2019/04/09 08:44:12:4412 - [DBUG]  Clicking element by Xpath : //img[@src='resources/images/menuLabel.png']                                                                                       

2019/04/09 08:44:15:4415 - [INFO] [INFO] STEP 6:the SINTelligent page Config Console loaded successfully                                                                                        

2019/04/09 08:44:15:4415 - [INFO] [INFO] Converting screenshot to Base64 format...                                                                                       

2019/04/09 08:44:15:4415 - [INFO] [INFO] Converting completed, image ready for embedding.                                                                                       

2019/04/09 08:44:16:4416 - [PASS] [INFO] TEST Projects_Create_Alarm_2 PASSED:Test Parameters:                                                                                       

2019/04/09 08:44:16:4416 - [DBUG] Continuing to next test method                                                                                       

2019/04/09 08:44:16:4416 - [DBUG] Executing test - Acknowledge_All_Alarms                                                                                       

2019/04/09 08:44:16:4416 - [KEYS] START KEYWORD: Projects_Create_Alarm_3                                                               

2019/04/09 08:44:17:4417 - [DBUG]  Clicking element by Xpath : //img[@id='btnAlarmViewer']                                                                                       

2019/04/09 08:44:18:4418 - [DBUG]  Clicking element by Xpath : //img[@id='btnRefreshTab']                                                                                       

2019/04/09 08:44:20:4420 - [INFO] [INFO] Converting screenshot to Base64 format...                                                                                       

2019/04/09 08:44:20:4420 - [INFO] [INFO] Converting completed, image ready for embedding.                                                                                       

2019/04/09 08:44:20:4420 - [PASS] [INFO] TEST Projects_Create_Alarm_3 PASSED:Successfully closed alarms                                                                                       

2019/04/09 08:44:20:4420 - [DBUG] Continuing to next test method                                                                                       

2019/04/09 08:44:20:4420 - [DBUG] Executing test - Main_Controller                                                                                       

2019/04/09 08:44:20:4420 - [EROR]  Parameter ' Host5 ' not found                                                                                       

2019/04/09 08:44:20:4420 - [EROR]  Parameter ' Host5 ' not found                                                                                       

2019/04/09 08:44:20:4420 - [EROR]  Parameter ' Host5 ' not found                                                                                       

2019/04/09 08:44:20:4420 - [KEYS] START KEYWORD: Projects_Create_Alarm_4                                                               

2019/04/09 08:45:00:450  - [DBUG]  Clicking element by Xpath : //li[@id= 'liTab2924']                                                                                       

2019/04/09 08:45:00:450  - [DBUG]  Clicking element by Xpath : //img[@id='btnRefreshTab']                                                                                       

2019/04/09 08:45:07:457  - [DBUG]  Clicking element by Xpath : //div[@id='dropdownlistArrowcboContext']/div                                                                                       

2019/04/09 08:45:08:458  - [DBUG]  Clicking element by Xpath : //span[text()='Host Groups']                                                                                       

2019/04/09 08:45:11:4511 - [DBUG]  Clicking element by Xpath : //span[contains(text(), 'Servers')]//..//span[contains(@class, 'button')]                                                                                       

2019/04/09 08:45:12:4512 - [DBUG]  Clicking element by Xpath : //span[contains(text(), 'Ping Hosts')]//..//span[contains(@class, 'button')]                                                                                       

2019/04/09 08:45:14:4514 - [DBUG]  Clicking element by Xpath : //div[text()='Config']                                                                                       

2019/04/09 08:45:15:4515 - [DBUG]  Clicking element by Xpath : //span[contains(text(), 'IP Interface (1)')]                                                                                       

2019/04/09 08:45:15:4515 - [DBUG]  Clicking element by Xpath : //tr[@id='row0dvObjectsb']                                                                                       

2019/04/09 08:45:16:4516 - [DBUG]  Clicking element by Xpath : //a[contains(text(), 'Edit Object')]                                                                                       

2019/04/09 08:45:17:4517 - [DBUG]  Clicking element by Xpath : //a[text()='Fault Rules']                                                                                       

2019/04/09 08:45:18:4518 - [DBUG]  Clicking element by Xpath : //td[text()='Apply']                                                                                       

2019/04/09 08:45:19:4519 - [INFO] [Info]Text retrieved successfully from element - //li[@item-label='Tasks']                                                                                       

2019/04/09 08:45:20:4520 - [DBUG]  Clicking element by Xpath : //li[@item-label='Create Baseline']                                                                                       

2019/04/09 08:45:22:4522 - [DBUG]  Clicking element by Xpath : //td[text()='Generate']                                                                                       

2019/04/09 08:45:22:4522 - [DBUG]  Clicking element by Xpath : //td[text()='OK']                                                                                       

2019/04/09 08:45:24:4524 - [DBUG] Text retrieved successfully from element - //div[@id = 'undefined_recordsLabel']/span//span                                                                                       

2019/04/09 08:45:27:4527 - [DBUG]  Clicking element by Xpath : //tr[@id='BL']                                                                                       

2019/04/09 08:45:29:4529 - [DBUG] Text retrieved successfully from element - //div[@id = 'undefined_recordsLabel']/span//span                                                                                       

2019/04/09 08:45:32:4532 - [DBUG]  Clicking element by Xpath : //tr[@id='BL']                                                                                       

2019/04/09 08:45:34:4534 - [DBUG] Text retrieved successfully from element - //div[@id = 'undefined_recordsLabel']/span//span                                                                                       

2019/04/09 08:45:34:4534 - [DBUG]  Clicking element by Xpath : //img[@id='btnAlarmViewer']                                                                                       

2019/04/09 08:45:35:4535 - [DBUG]  Clicking element by Xpath : //img[@id='btnRefreshTab']                                                                                       

2019/04/09 08:45:38:4538 - [DBUG]  Clicking element by Xpath : //div[@id='alarmDashbord']/..//font[text()='Servers']/../../..//img[contains(@src,'treePlus')]                                                                                       

2019/04/09 08:46:09:469  - [DBUG]  Clicking element by Xpath : //img[@id='btnRefreshTab']                                                                                       

2019/04/09 08:46:15:4615 - [DBUG]  Clicking element by Xpath : //div[@id='alarmDashbord']/..//font[text()='Servers']/../../..//img[contains(@src,'treePlus')]                                                                                       

2019/04/09 08:46:46:4646 - [DBUG]  Clicking element by Xpath : //img[@id='btnRefreshTab']                                                                                       

2019/04/09 08:46:52:4652 - [DBUG]  Clicking element by Xpath : //div[@id='alarmDashbord']/..//font[text()='Servers']/../../..//img[contains(@src,'treePlus')]                                                                                       

2019/04/09 08:47:23:4723 - [DBUG]  Clicking element by Xpath : //img[@id='btnRefreshTab']                                                                                       

2019/04/09 08:47:28:4728 - [DBUG]  Clicking element by Xpath : //div[@id='alarmDashbord']/..//font[text()='Servers']/../../..//img[contains(@src,'treePlus')]                                                                                       

2019/04/09 08:47:59:4759 - [DBUG]  Clicking element by Xpath : //img[@id='btnRefreshTab']                                                                                       

2019/04/09 08:48:05:485  - [DBUG]  Clicking element by Xpath : //div[@id='alarmDashbord']/..//font[text()='Servers']/../../..//img[contains(@src,'treePlus')]                                                                                       

2019/04/09 08:48:37:4837 - [DBUG]  Clicking element by Xpath : //img[@id='btnRefreshTab']                                                                                       

2019/04/09 08:48:42:4842 - [DBUG]  Clicking element by Xpath : //div[@id='alarmDashbord']/..//font[text()='Servers']/../../..//img[contains(@src,'treePlus')]                                                                                       

2019/04/09 08:49:13:4913 - [DBUG]  Clicking element by Xpath : //img[@id='btnRefreshTab']                                                                                       

2019/04/09 08:49:19:4919 - [DBUG]  Clicking element by Xpath : //div[@id='alarmDashbord']/..//font[text()='Servers']/../../..//img[contains(@src,'treePlus')]                                                                                       

2019/04/09 08:49:50:4950 - [DBUG]  Clicking element by Xpath : //img[@id='btnRefreshTab']                                                                                       

2019/04/09 08:49:56:4956 - [DBUG]  Clicking element by Xpath : //div[@id='alarmDashbord']/..//font[text()='Servers']/../../..//img[contains(@src,'treePlus')]                                                                                       

2019/04/09 08:49:56:4956 - [DBUG]  Clicking element by Xpath : //div[@id='alarmDashbord']/..//font[text()='Ping Hosts']/../../..//img[contains(@src,'treePlus')]                                                                                       

2019/04/09 08:50:00:500  - [DBUG]  Clicking element by Xpath : //div[@id='alarmDashbord']/..//font[text()='Routers']/../../..//img[contains(@src,'treePlus')]                                                                                       

2019/04/09 08:50:06:506  - [DBUG]  Clicking element by Xpath : //li[@id= 'liTab2924']                                                                                       

2019/04/09 08:50:06:506  - [DBUG]  Clicking element by Xpath : //img[@id='btnRefreshTab']                                                                                       

2019/04/09 08:50:10:5010 - [DBUG]  Clicking element by Xpath : //div[@id='dropdownlistArrowcboContext']/div                                                                                       

2019/04/09 08:50:10:5010 - [DBUG]  Clicking element by Xpath : //span[text()='Host Groups']                                                                                       

2019/04/09 08:50:15:5015 - [DBUG]  Clicking element by Xpath : //span[contains(text(), 'Servers')]//..//span[contains(@class, 'button')]                                                                                       

2019/04/09 08:50:16:5016 - [DBUG]  Clicking element by Xpath : //span[contains(text(), 'Ping Hosts')]//..//span[contains(@class, 'button')]                                                                                       

2019/04/09 08:50:17:5017 - [DBUG]  Clicking element by Xpath : //div[text()='Config']                                                                                       

2019/04/09 08:50:18:5018 - [DBUG]  Clicking element by Xpath : //span[contains(text(), 'IP Interface (1)')]                                                                                       

2019/04/09 08:50:18:5018 - [DBUG]  Clicking element by Xpath : //tr[@id='row0dvObjectsb']                                                                                       

2019/04/09 08:50:19:5019 - [DBUG]  Clicking element by Xpath : //a[contains(text(), 'Edit Object')]                                                                                       

2019/04/09 08:50:21:5021 - [DBUG]  Clicking element by Xpath : //a[text()='Fault Rules']                                                                                       

2019/04/09 08:50:21:5021 - [DBUG]  Clicking element by Xpath : //td[text()='Apply']                                                                                       

2019/04/09 08:50:22:5022 - [INFO] [Info]Text retrieved successfully from element - //li[@item-label='Tasks']                                                                                       

2019/04/09 08:50:23:5023 - [DBUG]  Clicking element by Xpath : //li[@item-label='Create Baseline']                                                                                       

2019/04/09 08:50:25:5025 - [DBUG]  Clicking element by Xpath : //td[text()='Generate']                                                                                       

2019/04/09 08:50:26:5026 - [DBUG]  Clicking element by Xpath : //td[text()='OK']                                                                                       

2019/04/09 08:50:28:5028 - [DBUG] Text retrieved successfully from element - //div[@id = 'undefined_recordsLabel']/span//span                                                                                       

2019/04/09 08:50:31:5031 - [DBUG]  Clicking element by Xpath : //tr[@id='BL']                                                                                       

2019/04/09 08:50:34:5034 - [DBUG] Text retrieved successfully from element - //div[@id = 'undefined_recordsLabel']/span//span                                                                                       

2019/04/09 08:50:37:5037 - [DBUG]  Clicking element by Xpath : //tr[@id='BL']                                                                                       

2019/04/09 08:50:39:5039 - [DBUG] Text retrieved successfully from element - //div[@id = 'undefined_recordsLabel']/span//span                                                                                       

2019/04/09 08:50:39:5039 - [DBUG]  Clicking element by Xpath : //img[@id='btnAlarmViewer']                                                                                       

2019/04/09 08:50:39:5039 - [DBUG]  Clicking element by Xpath : //img[@id='btnRefreshTab']                                                                                       

2019/04/09 08:50:43:5043 - [DBUG]  Clicking element by Xpath : //div[@id='alarmDashbord']/..//font[text()='Servers']/../../..//img[contains(@src,'treePlus')]                                                                                       

2019/04/09 08:50:43:5043 - [DBUG]  Clicking element by Xpath : //div[@id='alarmDashbord']/..//font[text()='Ping Hosts']/../../..//img[contains(@src,'treePlus')]                                                                                       

2019/04/09 08:51:14:5114 - [DBUG]  Clicking element by Xpath : //img[@id='btnRefreshTab']                                                                                       

2019/04/09 08:51:20:5120 - [DBUG]  Clicking element by Xpath : //div[@id='alarmDashbord']/..//font[text()='Servers']/../../..//img[contains(@src,'treePlus')]                                                                                       

2019/04/09 08:51:21:5121 - [DBUG]  Clicking element by Xpath : //div[@id='alarmDashbord']/..//font[text()='Ping Hosts']/../../..//img[contains(@src,'treePlus')]                                                                                       

2019/04/09 08:51:52:5152 - [DBUG]  Clicking element by Xpath : //img[@id='btnRefreshTab']                                                                                       

2019/04/09 08:51:57:5157 - [DBUG]  Clicking element by Xpath : //div[@id='alarmDashbord']/..//font[text()='Servers']/../../..//img[contains(@src,'treePlus')]                                                                                       

2019/04/09 08:51:58:5158 - [DBUG]  Clicking element by Xpath : //div[@id='alarmDashbord']/..//font[text()='Ping Hosts']/../../..//img[contains(@src,'treePlus')]                                                                                       

2019/04/09 08:52:29:5229 - [DBUG]  Clicking element by Xpath : //img[@id='btnRefreshTab']                                                                                       

2019/04/09 08:52:35:5235 - [DBUG]  Clicking element by Xpath : //div[@id='alarmDashbord']/..//font[text()='Servers']/../../..//img[contains(@src,'treePlus')]                                                                                       

2019/04/09 08:52:35:5235 - [DBUG]  Clicking element by Xpath : //div[@id='alarmDashbord']/..//font[text()='Ping Hosts']/../../..//img[contains(@src,'treePlus')]                                                                                       

2019/04/09 08:53:06:536  - [DBUG]  Clicking element by Xpath : //img[@id='btnRefreshTab']                                                                                       

2019/04/09 08:53:12:5312 - [DBUG]  Clicking element by Xpath : //div[@id='alarmDashbord']/..//font[text()='Servers']/../../..//img[contains(@src,'treePlus')]                                                                                       

2019/04/09 08:53:12:5312 - [DBUG]  Clicking element by Xpath : //div[@id='alarmDashbord']/..//font[text()='Ping Hosts']/../../..//img[contains(@src,'treePlus')]                                                                                       

2019/04/09 08:53:52:5352 - [EROR]  switching to default content  - chrome not reachable
  (Session info: chrome=73.0.3683.86)
  (Driver info: chromedriver=2.36.540470 (e522d04694c7ebea4ba8821272dbef4f9b818c91),platform=Windows NT 10.0.17763 x86_64) (WARNING: The server did not provide any stacktrace information)
Command duration or timeout: 4.07 seconds
Build info: version: '2.53.0', revision: '35ae25b', time: '2016-03-15 16:57:40'
System info: host: 'DESKTOP-7352OJM', ip: '10.0.1.106', os.name: 'Windows 10', os.arch: 'amd64', os.version: '10.0', java.version: '1.8.0_171'
Driver info: org.openqa.selenium.chrome.ChromeDriver
Capabilities [{applicationCacheEnabled=false, rotatable=false, mobileEmulationEnabled=false, networkConnectionEnabled=false, chrome={chromedriverVersion=2.36.540470 (e522d04694c7ebea4ba8821272dbef4f9b818c91), userDataDir=C:\Users\E6440\AppData\Local\Temp\scoped_dir1100_7728}, takesHeapSnapshot=true, pageLoadStrategy=normal, databaseEnabled=false, handlesAlerts=true, hasTouchScreen=false, version=73.0.3683.86, platform=XP, browserConnectionEnabled=false, nativeEvents=true, acceptSslCerts=false, acceptInsecureCerts=false, locationContextEnabled=true, webStorageEnabled=true, browserName=chrome, takesScreenshot=true, javascriptEnabled=true, cssSelectorsEnabled=true, setWindowRect=true, unexpectedAlertBehaviour=}]
Session ID: ea15e776e4125372b020d7de4861efc3                                                                                       

2019/04/09 08:53:56:5356 - [EROR]  switching to default content  - chrome not reachable
  (Session info: chrome=73.0.3683.86)
  (Driver info: chromedriver=2.36.540470 (e522d04694c7ebea4ba8821272dbef4f9b818c91),platform=Windows NT 10.0.17763 x86_64) (WARNING: The server did not provide any stacktrace information)
Command duration or timeout: 4.13 seconds
Build info: version: '2.53.0', revision: '35ae25b', time: '2016-03-15 16:57:40'
System info: host: 'DESKTOP-7352OJM', ip: '10.0.1.106', os.name: 'Windows 10', os.arch: 'amd64', os.version: '10.0', java.version: '1.8.0_171'
Driver info: org.openqa.selenium.chrome.ChromeDriver
Capabilities [{applicationCacheEnabled=false, rotatable=false, mobileEmulationEnabled=false, networkConnectionEnabled=false, chrome={chromedriverVersion=2.36.540470 (e522d04694c7ebea4ba8821272dbef4f9b818c91), userDataDir=C:\Users\E6440\AppData\Local\Temp\scoped_dir1100_7728}, takesHeapSnapshot=true, pageLoadStrategy=normal, databaseEnabled=false, handlesAlerts=true, hasTouchScreen=false, version=73.0.3683.86, platform=XP, browserConnectionEnabled=false, nativeEvents=true, acceptSslCerts=false, acceptInsecureCerts=false, locationContextEnabled=true, webStorageEnabled=true, browserName=chrome, takesScreenshot=true, javascriptEnabled=true, cssSelectorsEnabled=true, setWindowRect=true, unexpectedAlertBehaviour=}]
Session ID: ea15e776e4125372b020d7de4861efc3                                                                                       

2019/04/09 08:54:00:540  - [EROR]  switching to default content  - chrome not reachable
  (Session info: chrome=73.0.3683.86)
  (Driver info: chromedriver=2.36.540470 (e522d04694c7ebea4ba8821272dbef4f9b818c91),platform=Windows NT 10.0.17763 x86_64) (WARNING: The server did not provide any stacktrace information)
Command duration or timeout: 4.05 seconds
Build info: version: '2.53.0', revision: '35ae25b', time: '2016-03-15 16:57:40'
System info: host: 'DESKTOP-7352OJM', ip: '10.0.1.106', os.name: 'Windows 10', os.arch: 'amd64', os.version: '10.0', java.version: '1.8.0_171'
Driver info: org.openqa.selenium.chrome.ChromeDriver
Capabilities [{applicationCacheEnabled=false, rotatable=false, mobileEmulationEnabled=false, networkConnectionEnabled=false, chrome={chromedriverVersion=2.36.540470 (e522d04694c7ebea4ba8821272dbef4f9b818c91), userDataDir=C:\Users\E6440\AppData\Local\Temp\scoped_dir1100_7728}, takesHeapSnapshot=true, pageLoadStrategy=normal, databaseEnabled=false, handlesAlerts=true, hasTouchScreen=false, version=73.0.3683.86, platform=XP, browserConnectionEnabled=false, nativeEvents=true, acceptSslCerts=false, acceptInsecureCerts=false, locationContextEnabled=true, webStorageEnabled=true, browserName=chrome, takesScreenshot=true, javascriptEnabled=true, cssSelectorsEnabled=true, setWindowRect=true, unexpectedAlertBehaviour=}]
Session ID: ea15e776e4125372b020d7de4861efc3                                                                                       

2019/04/09 08:54:04:544  - [EROR]  could not take screenshot - KeywordDrivenTestReports\Project_ Create_ Alarms_2019-04-09_08-43-42\Projects_Create_Alarm_4\PASSED_Projects_Create_Alarm_4_1 Successfully created down alarm.png - chrome not reachable
  (Session info: chrome=73.0.3683.86)
  (Driver info: chromedriver=2.36.540470 (e522d04694c7ebea4ba8821272dbef4f9b818c91),platform=Windows NT 10.0.17763 x86_64) (WARNING: The server did not provide any stacktrace information)
Command duration or timeout: 4.08 seconds
Build info: version: '2.53.0', revision: '35ae25b', time: '2016-03-15 16:57:40'
System info: host: 'DESKTOP-7352OJM', ip: '10.0.1.106', os.name: 'Windows 10', os.arch: 'amd64', os.version: '10.0', java.version: '1.8.0_171'
Driver info: org.openqa.selenium.chrome.ChromeDriver
Capabilities [{applicationCacheEnabled=false, rotatable=false, mobileEmulationEnabled=false, networkConnectionEnabled=false, chrome={chromedriverVersion=2.36.540470 (e522d04694c7ebea4ba8821272dbef4f9b818c91), userDataDir=C:\Users\E6440\AppData\Local\Temp\scoped_dir1100_7728}, takesHeapSnapshot=true, pageLoadStrategy=normal, databaseEnabled=false, handlesAlerts=true, hasTouchScreen=false, version=73.0.3683.86, platform=XP, browserConnectionEnabled=false, nativeEvents=true, acceptSslCerts=false, acceptInsecureCerts=false, locationContextEnabled=true, webStorageEnabled=true, browserName=chrome, takesScreenshot=true, javascriptEnabled=true, cssSelectorsEnabled=true, setWindowRect=true, unexpectedAlertBehaviour=}]
Session ID: ea15e776e4125372b020d7de4861efc3                                                                                       

2019/04/09 08:54:04:544  - [INFO] [INFO] Converting screenshot to Base64 format...                                                                                       

2019/04/09 08:54:04:544  - [EROR] [ERROR] Failed to convert image to Base64 format - KeywordDrivenTestReports\Project_ Create_ Alarms_2019-04-09_08-43-42\Projects_Create_Alarm_4\PASSED_Projects_Create_Alarm_4_1 Successfully created down alarm.png (The system cannot find the path specified)                                                                                       

2019/04/09 08:54:04:544  - [PASS] [INFO] TEST Projects_Create_Alarm_4 PASSED:Test Parameters:                                                                                       

2019/04/09 08:54:04:544  - [DBUG] Continuing to next test method                                                                                       

2019/04/09 08:54:04:544  - [DBUG] Executing test - Alarm_Time                                                                                       

2019/04/09 08:54:04:544  - [KEYS] START KEYWORD: Projects_Create_Alarm_5                                                               

2019/04/09 08:54:04:544  - [EROR]  Parameter ' Alarm5 ' not found                                                                                       

2019/04/09 08:55:08:558  - [EROR]  switching to default content  - chrome not reachable
  (Session info: chrome=73.0.3683.86)
  (Driver info: chromedriver=2.36.540470 (e522d04694c7ebea4ba8821272dbef4f9b818c91),platform=Windows NT 10.0.17763 x86_64) (WARNING: The server did not provide any stacktrace information)
Command duration or timeout: 4.01 seconds
Build info: version: '2.53.0', revision: '35ae25b', time: '2016-03-15 16:57:40'
System info: host: 'DESKTOP-7352OJM', ip: '10.0.1.106', os.name: 'Windows 10', os.arch: 'amd64', os.version: '10.0', java.version: '1.8.0_171'
Driver info: org.openqa.selenium.chrome.ChromeDriver
Capabilities [{applicationCacheEnabled=false, rotatable=false, mobileEmulationEnabled=false, networkConnectionEnabled=false, chrome={chromedriverVersion=2.36.540470 (e522d04694c7ebea4ba8821272dbef4f9b818c91), userDataDir=C:\Users\E6440\AppData\Local\Temp\scoped_dir1100_7728}, takesHeapSnapshot=true, pageLoadStrategy=normal, databaseEnabled=false, handlesAlerts=true, hasTouchScreen=false, version=73.0.3683.86, platform=XP, browserConnectionEnabled=false, nativeEvents=true, acceptSslCerts=false, acceptInsecureCerts=false, locationContextEnabled=true, webStorageEnabled=true, browserName=chrome, takesScreenshot=true, javascriptEnabled=true, cssSelectorsEnabled=true, setWindowRect=true, unexpectedAlertBehaviour=}]
Session ID: ea15e776e4125372b020d7de4861efc3                                                                                       

2019/04/09 08:56:12:5612 - [EROR]  switching to default content  - chrome not reachable
  (Session info: chrome=73.0.3683.86)
  (Driver info: chromedriver=2.36.540470 (e522d04694c7ebea4ba8821272dbef4f9b818c91),platform=Windows NT 10.0.17763 x86_64) (WARNING: The server did not provide any stacktrace information)
Command duration or timeout: 4.01 seconds
Build info: version: '2.53.0', revision: '35ae25b', time: '2016-03-15 16:57:40'
System info: host: 'DESKTOP-7352OJM', ip: '10.0.1.106', os.name: 'Windows 10', os.arch: 'amd64', os.version: '10.0', java.version: '1.8.0_171'
Driver info: org.openqa.selenium.chrome.ChromeDriver
Capabilities [{applicationCacheEnabled=false, rotatable=false, mobileEmulationEnabled=false, networkConnectionEnabled=false, chrome={chromedriverVersion=2.36.540470 (e522d04694c7ebea4ba8821272dbef4f9b818c91), userDataDir=C:\Users\E6440\AppData\Local\Temp\scoped_dir1100_7728}, takesHeapSnapshot=true, pageLoadStrategy=normal, databaseEnabled=false, handlesAlerts=true, hasTouchScreen=false, version=73.0.3683.86, platform=XP, browserConnectionEnabled=false, nativeEvents=true, acceptSslCerts=false, acceptInsecureCerts=false, locationContextEnabled=true, webStorageEnabled=true, browserName=chrome, takesScreenshot=true, javascriptEnabled=true, cssSelectorsEnabled=true, setWindowRect=true, unexpectedAlertBehaviour=}]
Session ID: ea15e776e4125372b020d7de4861efc3                                                                                       

2019/04/09 08:57:17:5717 - [EROR]  switching to default content  - chrome not reachable
  (Session info: chrome=73.0.3683.86)
  (Driver info: chromedriver=2.36.540470 (e522d04694c7ebea4ba8821272dbef4f9b818c91),platform=Windows NT 10.0.17763 x86_64) (WARNING: The server did not provide any stacktrace information)
Command duration or timeout: 4.01 seconds
Build info: version: '2.53.0', revision: '35ae25b', time: '2016-03-15 16:57:40'
System info: host: 'DESKTOP-7352OJM', ip: '10.0.1.106', os.name: 'Windows 10', os.arch: 'amd64', os.version: '10.0', java.version: '1.8.0_171'
Driver info: org.openqa.selenium.chrome.ChromeDriver
Capabilities [{applicationCacheEnabled=false, rotatable=false, mobileEmulationEnabled=false, networkConnectionEnabled=false, chrome={chromedriverVersion=2.36.540470 (e522d04694c7ebea4ba8821272dbef4f9b818c91), userDataDir=C:\Users\E6440\AppData\Local\Temp\scoped_dir1100_7728}, takesHeapSnapshot=true, pageLoadStrategy=normal, databaseEnabled=false, handlesAlerts=true, hasTouchScreen=false, version=73.0.3683.86, platform=XP, browserConnectionEnabled=false, nativeEvents=true, acceptSslCerts=false, acceptInsecureCerts=false, locationContextEnabled=true, webStorageEnabled=true, browserName=chrome, takesScreenshot=true, javascriptEnabled=true, cssSelectorsEnabled=true, setWindowRect=true, unexpectedAlertBehaviour=}]
Session ID: ea15e776e4125372b020d7de4861efc3                                                                                       
